waveform.vcd
$version Generated by VerilatedVcd $end
$timescale 1ps $end
 $scope module TOP $end
  $var wire 1 H clk $end
  $scope module uart_tb $end
   $var wire 1 H clk $end
   $var wire 1 # reset $end
   $var wire 1 $ tx_start $end
   $var wire 1 % load $end
   $var wire 8 & in [7:0] $end
   $var wire 32 ' tx_baud_divisor [31:0] $end
   $var wire 32 ( clk_rate [31:0] $end
   $var wire 8 ) captured_in [7:0] $end
   $var wire 1 I out $end
   $var wire 1 2 data_transmitted $end
   $var wire 1 : data_received $end
   $var wire 1 J start_bit $end
   $var wire 8 ; data_out [7:0] $end
   $var wire 1 , tx_baud_clk $end
   $var wire 1 - rx_baud_clk $end
   $var wire 32 * wait_for_start_bit__Vstatic__i [31:0] $end
   $scope module UART $end
    $var wire 1 H clk $end
    $var wire 1 # reset $end
    $var wire 1 $ tx_start $end
    $var wire 1 % load $end
    $var wire 8 & in [7:0] $end
    $var wire 32 ' tx_baud_divisor [31:0] $end
    $var wire 32 ( clk_rate [31:0] $end
    $var wire 1 I out $end
    $var wire 1 2 data_transmitted $end
    $var wire 1 J start_bit $end
    $var wire 1 : data_received $end
    $var wire 8 ; data_out [7:0] $end
    $var wire 1 , tx_baud_clk $end
    $var wire 1 - rx_baud_clk $end
    $var wire 1 3 tx_enable $end
    $var wire 1 4 load_en $end
    $var wire 1 5 tx_sel $end
    $var wire 1 < get_value $end
    $var wire 1 = stop $end
    $var wire 1 > bit_clr $end
    $var wire 1 ? get_output $end
    $var wire 1 @ take_value $end
    $var wire 1 A incre_counter $end
    $scope module Baud_CLK $end
     $var wire 1 H clk $end
     $var wire 1 # reset $end
     $var wire 32 ( clk_rate [31:0] $end
     $var wire 32 ' tx_baud_divisor [31:0] $end
     $var wire 1 , tx_baud_clk $end
     $var wire 1 - rx_baud_clk $end
     $var wire 32 . tx_counter [31:0] $end
     $var wire 32 / rx_counter [31:0] $end
     $var wire 32 + rx_baud_divisor [31:0] $end
     $var wire 1 K tx_eq $end
     $var wire 1 L rx_eq $end
     $var wire 1 0 tx_toggle $end
     $var wire 1 1 rx_toggle $end
    $upscope $end
    $scope module RX_CONTROLLER $end
     $var wire 1 - clk $end
     $var wire 1 # reset $end
     $var wire 1 < get_value $end
     $var wire 1 : data_received $end
     $var wire 1 J start_bit $end
     $var wire 1 = stop $end
     $var wire 1 > bit_clr $end
     $var wire 1 ? get_output $end
     $var wire 1 @ take_value $end
     $var wire 1 A incre_counter $end
     $var wire 2 B c_state [1:0] $end
     $var wire 2 M n_state [1:0] $end
     $var wire 2 O S0 [1:0] $end
     $var wire 2 P S1 [1:0] $end
     $var wire 2 Q S2 [1:0] $end
     $var wire 2 R S3 [1:0] $end
    $upscope $end
    $scope module RX_DATAPATH $end
     $var wire 1 - clk $end
     $var wire 1 # reset $end
     $var wire 1 I in $end
     $var wire 1 > bit_clr $end
     $var wire 1 ? get_output $end
     $var wire 1 @ take_value $end
     $var wire 1 A incre_counter $end
     $var wire 8 ; data_out [7:0] $end
     $var wire 1 = stop $end
     $var wire 1 J start_bit $end
     $var wire 1 : data_received $end
     $var wire 1 < get_value $end
     $scope module Bit_Counter $end
      $var wire 1 - clk $end
      $var wire 1 # reset $end
      $var wire 1 > bit_clr $end
      $var wire 1 A incre_counter $end
      $var wire 1 : data_received $end
      $var wire 32 S max_bits [31:0] $end
      $var wire 4 C counter [3:0] $end
     $upscope $end
     $scope module SAMLE_COUNTER $end
      $var wire 1 - clk $end
      $var wire 1 # reset $end
      $var wire 1 J start $end
      $var wire 1 < get_value $end
      $var wire 3 D counter [2:0] $end
      $var wire 1 E started $end
     $upscope $end
     $scope module SIPO $end
      $var wire 1 - clk $end
      $var wire 1 # reset $end
      $var wire 1 @ take_value $end
      $var wire 1 ? get_output $end
      $var wire 1 I data_in $end
      $var wire 1 J start_bit $end
      $var wire 1 = stop $end
      $var wire 8 ; data_out [7:0] $end
      $var wire 10 F temp [9:0] $end
      $var wire 10 G q [9:0] $end
     $upscope $end
    $upscope $end
    $scope module TX_CONTROLLER $end
     $var wire 1 , clk $end
     $var wire 1 # reset $end
     $var wire 1 $ tx_start $end
     $var wire 1 % load $end
     $var wire 1 2 data_transmitted $end
     $var wire 1 3 tx_enable $end
     $var wire 1 4 load_en $end
     $var wire 1 5 tx_sel $end
     $var wire 2 6 c_state [1:0] $end
     $var wire 2 N n_state [1:0] $end
     $var wire 2 O S0 [1:0] $end
     $var wire 2 P S1 [1:0] $end
     $var wire 2 Q S2 [1:0] $end
    $upscope $end
    $scope module TX_DATAPATH $end
     $var wire 1 , clk $end
     $var wire 1 # reset $end
     $var wire 1 4 load_en $end
     $var wire 1 3 tx_enable $end
     $var wire 1 5 tx_sel $end
     $var wire 8 & in [7:0] $end
     $var wire 1 I out $end
     $var wire 1 2 data_transmitted $end
     $var wire 1 7 piso_out $end
     $var wire 1 T idol $end
     $scope module PISO $end
      $var wire 1 , clk $end
      $var wire 1 # reset $end
      $var wire 1 3 tx_enable $end
      $var wire 1 4 load_en $end
      $var wire 8 & in [7:0] $end
      $var wire 1 7 out $end
      $var wire 10 8 q [9:0] $end
     $upscope $end
     $scope module TX_COUNTER $end
      $var wire 1 , clk $end
      $var wire 1 # reset $end
      $var wire 1 3 tx_enable $end
      $var wire 1 2 data_transmitted $end
      $var wire 4 U max_count [3:0] $end
      $var wire 4 9 counter [3:0] $end
     $upscope $end
     $scope module TX_MUX $end
      $var wire 1 T a $end
      $var wire 1 7 b $end
      $var wire 1 5 sel $end
      $var wire 1 I out $end
     $upscope $end
    $upscope $end
   $upscope $end
  $upscope $end
 $upscope $end
$enddefinitions $end


#0
0#
0$
0%
b00000000 &
b00000000000000000000000000000000 '
b00000000000000000000000000000000 (
b00000000 )
b00000000000000000000000000000000 *
b00000000000000000000000000000000 +
0,
0-
b00000000000000000000000000000000 .
b00000000000000000000000000000000 /
00
01
02
03
04
05
b00 6
07
b0000000000 8
b0000 9
0:
b00000000 ;
0<
0=
1>
0?
0@
0A
b00 B
b0000 C
b000 D
0E
b0000000000 F
b0000000000 G
1H
1I
0J
0K
0L
b00 M
b00 N
b00 O
b01 P
b10 Q
b11 R
b00000000000000000000000000001010 S
1T
b1010 U
#1
0H
#2
1#
b00000000000000000000000000001000 '
b00000000111101000010010000000000 (
b00000000000000000000000000000001 +
b00000000000000000000000000000001 .
11
1H
1L
#3
0H
#4
0#
b00000000000000000000000000000000 .
10
b1111111111 8
1H
#5
0H
#6
1#
b11000100 &
1-
b00000000000000000000000000000001 .
01
b001 D
1H
#7
0H
#8
1%
0-
b00000000000000000000000000000010 .
11
1H
b01 N
#9
0H
#10
1-
b00000000000000000000000000000011 .
01
b010 D
1H
#11
0H
#12
0-
b00000000000000000000000000000100 .
11
1H
#13
0H
#14
1-
b00000000000000000000000000000101 .
01
b011 D
1H
#15
0H
#16
0-
b00000000000000000000000000000110 .
11
1H
#17
0H
#18
1-
b00000000000000000000000000000111 .
01
b100 D
1H
1K
#19
0H
#20
1,
0-
b00000000000000000000000000000000 .
00
11
14
b01 6
17
1H
0K
#21
0H
#22
1-
b00000000000000000000000000000001 .
01
1<
b101 D
1H
#23
0H
#24
0-
b00000000000000000000000000000010 .
11
1H
#25
0H
#26
1-
b00000000000000000000000000000011 .
01
0<
b110 D
1H
#27
0H
#28
0-
b00000000000000000000000000000100 .
11
1H
#29
0H
#30
1-
b00000000000000000000000000000101 .
01
b111 D
1H
#31
0H
#32
0-
b00000000000000000000000000000110 .
11
1H
#33
0H
#34
1-
b00000000000000000000000000000111 .
01
b000 D
1H
1K
#35
0H
#36
0%
0,
0-
b00000000000000000000000000000000 .
10
11
1H
0K
#37
0H
#38
1$
b11000100 )
1-
b00000000000000000000000000000001 .
01
b001 D
1H
b10 N
#39
0H
#40
0-
b00000000000000000000000000000010 .
11
1H
#41
0H
#42
1-
b00000000000000000000000000000011 .
01
b010 D
1H
#43
0H
#44
0-
b00000000000000000000000000000100 .
11
1H
#45
0H
#46
1-
b00000000000000000000000000000101 .
01
b011 D
1H
#47
0H
#48
0-
b00000000000000000000000000000110 .
11
1H
#49
0H
#50
1-
b00000000000000000000000000000111 .
01
b100 D
1H
1K
#51
0H
#52
1,
0-
b00000000000000000000000000000000 .
00
11
13
04
15
b10 6
b1110001000 8
1H
0K
#53
0H
#54
1-
b00000000000000000000000000000001 .
01
1<
b101 D
1H
#55
0H
#56
0-
b00000000000000000000000000000010 .
11
1H
#57
0H
#58
1-
b00000000000000000000000000000011 .
01
0<
b110 D
1H
#59
0H
#60
0-
b00000000000000000000000000000100 .
11
1H
#61
0H
#62
1-
b00000000000000000000000000000101 .
01
b111 D
1H
#63
0H
#64
0-
b00000000000000000000000000000110 .
11
1H
#65
0H
#66
1-
b00000000000000000000000000000111 .
01
b000 D
1H
1K
#67
0H
#68
0,
0-
b00000000000000000000000000000000 .
10
11
1H
0K
#69
0H
#70
1-
b00000000000000000000000000000001 .
01
b001 D
1H
#71
0H
#72
0-
b00000000000000000000000000000010 .
11
1H
#73
0H
#74
1-
b00000000000000000000000000000011 .
01
b010 D
1H
#75
0H
#76
0-
b00000000000000000000000000000100 .
11
1H
#77
0H
#78
1-
b00000000000000000000000000000101 .
01
b011 D
1H
#79
0H
#80
0-
b00000000000000000000000000000110 .
11
1H
#81
0H
#82
1-
b00000000000000000000000000000111 .
01
b100 D
1H
1K
#83
0H
#84
1,
0-
b00000000000000000000000000000000 .
00
11
07
b0111000100 8
b0001 9
1H
0I
1J
0K
b01 M
#85
0H
#86
1-
b00000000000000000000000000000001 .
01
0>
b01 B
b000 D
1E
1H
#87
0H
#88
0-
b00000000000000000000000000000010 .
11
1H
#89
0H
#90
1-
b00000000000000000000000000000011 .
01
b001 D
1H
#91
0H
#92
0-
b00000000000000000000000000000100 .
11
1H
#93
0H
#94
1-
b00000000000000000000000000000101 .
01
b010 D
1H
#95
0H
#96
0-
b00000000000000000000000000000110 .
11
1H
#97
0H
#98
1-
b00000000000000000000000000000111 .
01
b011 D
1H
1K
#99
0H
#100
0,
0-
b00000000000000000000000000000000 .
10
11
1H
0K
#101
0H
#102
1-
b00000000000000000000000000000001 .
01
b100 D
1H
#103
0H
#104
0-
b00000000000000000000000000000010 .
11
1H
#105
0H
#106
1-
b00000000000000000000000000000011 .
01
1<
b101 D
1H
b10 M
#107
0H
#108
0-
b00000000000000000000000000000100 .
11
1H
#109
0H
#110
1-
b00000000000000000000000000000101 .
01
0<
1@
1A
b10 B
b110 D
1H
b01 M
#111
0H
#112
0-
b00000000000000000000000000000110 .
11
1H
#113
0H
#114
1-
b00000000000000000000000000000111 .
01
0@
0A
b01 B
b0001 C
b111 D
1H
1K
#115
0H
#116
1,
0-
b00000000000000000000000000000000 .
00
11
b0011100010 8
b0010 9
1H
0K
#117
0H
#118
1-
b00000000000000000000000000000001 .
01
b000 D
1H
#119
0H
#120
0-
b00000000000000000000000000000010 .
11
1H
#121
0H
#122
1-
b00000000000000000000000000000011 .
01
b001 D
1H
#123
0H
#124
0-
b00000000000000000000000000000100 .
11
1H
#125
0H
#126
1-
b00000000000000000000000000000101 .
01
b010 D
1H
#127
0H
#128
0-
b00000000000000000000000000000110 .
11
1H
#129
0H
#130
1-
b00000000000000000000000000000111 .
01
b011 D
1H
1K
#131
0H
#132
0,
0-
b00000000000000000000000000000000 .
10
11
1H
0K
#133
0H
#134
1-
b00000000000000000000000000000001 .
01
b100 D
1H
#135
0H
#136
0-
b00000000000000000000000000000010 .
11
1H
#137
0H
#138
1-
b00000000000000000000000000000011 .
01
1<
b101 D
1H
b10 M
#139
0H
#140
0-
b00000000000000000000000000000100 .
11
1H
#141
0H
#142
1-
b00000000000000000000000000000101 .
01
0<
1@
1A
b10 B
b110 D
1H
b01 M
#143
0H
#144
0-
b00000000000000000000000000000110 .
11
1H
#145
0H
#146
1-
b00000000000000000000000000000111 .
01
0@
0A
b01 B
b0010 C
b111 D
1H
1K
#147
0H
#148
1,
0-
b00000000000000000000000000000000 .
00
11
b0001110001 8
b0011 9
1H
0K
#149
0H
#150
1-
b00000000000000000000000000000001 .
01
b000 D
1H
#151
0H
#152
0-
b00000000000000000000000000000010 .
11
1H
#153
0H
#154
1-
b00000000000000000000000000000011 .
01
b001 D
1H
#155
0H
#156
0-
b00000000000000000000000000000100 .
11
1H
#157
0H
#158
1-
b00000000000000000000000000000101 .
01
b010 D
1H
#159
0H
#160
0-
b00000000000000000000000000000110 .
11
1H
#161
0H
#162
1-
b00000000000000000000000000000111 .
01
b011 D
1H
1K
#163
0H
#164
0,
0-
b00000000000000000000000000000000 .
10
11
1H
0K
#165
0H
#166
1-
b00000000000000000000000000000001 .
01
b100 D
1H
#167
0H
#168
0-
b00000000000000000000000000000010 .
11
1H
#169
0H
#170
1-
b00000000000000000000000000000011 .
01
1<
b101 D
1H
b10 M
#171
0H
#172
0-
b00000000000000000000000000000100 .
11
1H
#173
0H
#174
1-
b00000000000000000000000000000101 .
01
0<
1@
1A
b10 B
b110 D
1H
b01 M
#175
0H
#176
0-
b00000000000000000000000000000110 .
11
1H
#177
0H
#178
1-
b00000000000000000000000000000111 .
01
0@
0A
b01 B
b0011 C
b111 D
1H
1K
#179
0H
#180
1,
0-
b00000000000000000000000000000000 .
00
11
17
b0000111000 8
b0100 9
1H
1I
0J
0K
#181
0H
#182
1-
b00000000000000000000000000000001 .
01
b000 D
1H
#183
0H
#184
0-
b00000000000000000000000000000010 .
11
1H
#185
0H
#186
1-
b00000000000000000000000000000011 .
01
b001 D
1H
#187
0H
#188
0-
b00000000000000000000000000000100 .
11
1H
#189
0H
#190
1-
b00000000000000000000000000000101 .
01
b010 D
1H
#191
0H
#192
0-
b00000000000000000000000000000110 .
11
1H
#193
0H
#194
1-
b00000000000000000000000000000111 .
01
b011 D
1H
1K
#195
0H
#196
0,
0-
b00000000000000000000000000000000 .
10
11
1H
0K
#197
0H
#198
1-
b00000000000000000000000000000001 .
01
b100 D
1H
#199
0H
#200
0-
b00000000000000000000000000000010 .
11
1H
#201
0H
#202
1-
b00000000000000000000000000000011 .
01
1<
b101 D
1H
b10 M
#203
0H
#204
0-
b00000000000000000000000000000100 .
11
1H
#205
0H
#206
1-
b00000000000000000000000000000101 .
01
0<
1@
1A
b10 B
b110 D
1H
b01 M
#207
0H
#208
0-
b00000000000000000000000000000110 .
11
1H
#209
0H
#210
1-
b00000000000000000000000000000111 .
01
0@
0A
b01 B
b0100 C
b111 D
b1000000000 F
1H
1K
#211
0H
#212
1,
0-
b00000000000000000000000000000000 .
00
11
07
b0000011100 8
b0101 9
1H
0I
1J
0K
#213
0H
#214
1-
b00000000000000000000000000000001 .
01
b000 D
1H
#215
0H
#216
0-
b00000000000000000000000000000010 .
11
1H
#217
0H
#218
1-
b00000000000000000000000000000011 .
01
b001 D
1H
#219
0H
#220
0-
b00000000000000000000000000000100 .
11
1H
#221
0H
#222
1-
b00000000000000000000000000000101 .
01
b010 D
1H
#223
0H
#224
0-
b00000000000000000000000000000110 .
11
1H
#225
0H
#226
1-
b00000000000000000000000000000111 .
01
b011 D
1H
1K
#227
0H
#228
0,
0-
b00000000000000000000000000000000 .
10
11
1H
0K
#229
0H
#230
1-
b00000000000000000000000000000001 .
01
b100 D
1H
#231
0H
#232
0-
b00000000000000000000000000000010 .
11
1H
#233
0H
#234
1-
b00000000000000000000000000000011 .
01
1<
b101 D
1H
b10 M
#235
0H
#236
0-
b00000000000000000000000000000100 .
11
1H
#237
0H
#238
1-
b00000000000000000000000000000101 .
01
0<
1@
1A
b10 B
b110 D
1H
b01 M
#239
0H
#240
0-
b00000000000000000000000000000110 .
11
1H
#241
0H
#242
1-
b00000000000000000000000000000111 .
01
0@
0A
b01 B
b0101 C
b111 D
b0100000000 F
b1000000000 G
1H
1K
#243
0H
#244
1,
0-
b00000000000000000000000000000000 .
00
11
b0000001110 8
b0110 9
1H
0K
#245
0H
#246
1-
b00000000000000000000000000000001 .
01
b000 D
1H
#247
0H
#248
0-
b00000000000000000000000000000010 .
11
1H
#249
0H
#250
1-
b00000000000000000000000000000011 .
01
b001 D
1H
#251
0H
#252
0-
b00000000000000000000000000000100 .
11
1H
#253
0H
#254
1-
b00000000000000000000000000000101 .
01
b010 D
1H
#255
0H
#256
0-
b00000000000000000000000000000110 .
11
1H
#257
0H
#258
1-
b00000000000000000000000000000111 .
01
b011 D
1H
1K
#259
0H
#260
0,
0-
b00000000000000000000000000000000 .
10
11
1H
0K
#261
0H
#262
1-
b00000000000000000000000000000001 .
01
b100 D
1H
#263
0H
#264
0-
b00000000000000000000000000000010 .
11
1H
#265
0H
#266
1-
b00000000000000000000000000000011 .
01
1<
b101 D
1H
b10 M
#267
0H
#268
0-
b00000000000000000000000000000100 .
11
1H
#269
0H
#270
1-
b00000000000000000000000000000101 .
01
0<
1@
1A
b10 B
b110 D
1H
b01 M
#271
0H
#272
0-
b00000000000000000000000000000110 .
11
1H
#273
0H
#274
1-
b00000000000000000000000000000111 .
01
0@
0A
b01 B
b0110 C
b111 D
b0010000000 F
b0100000000 G
1H
1K
#275
0H
#276
1,
0-
b00000000000000000000000000000000 .
00
11
b0000000111 8
b0111 9
1H
0K
#277
0H
#278
1-
b00000000000000000000000000000001 .
01
b000 D
1H
#279
0H
#280
0-
b00000000000000000000000000000010 .
11
1H
#281
0H
#282
1-
b00000000000000000000000000000011 .
01
b001 D
1H
#283
0H
#284
0-
b00000000000000000000000000000100 .
11
1H
#285
0H
#286
1-
b00000000000000000000000000000101 .
01
b010 D
1H
#287
0H
#288
0-
b00000000000000000000000000000110 .
11
1H
#289
0H
#290
1-
b00000000000000000000000000000111 .
01
b011 D
1H
1K
#291
0H
#292
0,
0-
b00000000000000000000000000000000 .
10
11
1H
0K
#293
0H
#294
1-
b00000000000000000000000000000001 .
01
b100 D
1H
#295
0H
#296
0-
b00000000000000000000000000000010 .
11
1H
#297
0H
#298
1-
b00000000000000000000000000000011 .
01
1<
b101 D
1H
b10 M
#299
0H
#300
0-
b00000000000000000000000000000100 .
11
1H
#301
0H
#302
1-
b00000000000000000000000000000101 .
01
0<
1@
1A
b10 B
b110 D
1H
b01 M
#303
0H
#304
0-
b00000000000000000000000000000110 .
11
1H
#305
0H
#306
1-
b00000000000000000000000000000111 .
01
0@
0A
b01 B
b0111 C
b111 D
b0001000000 F
b0010000000 G
1H
1K
#307
0H
#308
1,
0-
b00000000000000000000000000000000 .
00
11
17
b0000000011 8
b1000 9
1H
1I
0J
0K
#309
0H
#310
1-
b00000000000000000000000000000001 .
01
b000 D
1H
#311
0H
#312
0-
b00000000000000000000000000000010 .
11
1H
#313
0H
#314
1-
b00000000000000000000000000000011 .
01
b001 D
1H
#315
0H
#316
0-
b00000000000000000000000000000100 .
11
1H
#317
0H
#318
1-
b00000000000000000000000000000101 .
01
b010 D
1H
#319
0H
#320
0-
b00000000000000000000000000000110 .
11
1H
#321
0H
#322
1-
b00000000000000000000000000000111 .
01
b011 D
1H
1K
#323
0H
#324
0,
0-
b00000000000000000000000000000000 .
10
11
1H
0K
#325
0H
#326
1-
b00000000000000000000000000000001 .
01
b100 D
1H
#327
0H
#328
0-
b00000000000000000000000000000010 .
11
1H
#329
0H
#330
1-
b00000000000000000000000000000011 .
01
1<
b101 D
1H
b10 M
#331
0H
#332
0-
b00000000000000000000000000000100 .
11
1H
#333
0H
#334
1-
b00000000000000000000000000000101 .
01
0<
1@
1A
b10 B
b110 D
1H
b01 M
#335
0H
#336
0-
b00000000000000000000000000000110 .
11
1H
#337
0H
#338
1-
b00000000000000000000000000000111 .
01
0@
0A
b01 B
b1000 C
b111 D
b1000100000 F
b0001000000 G
1H
1K
#339
0H
#340
1,
0-
b00000000000000000000000000000000 .
00
11
b0000000001 8
b1001 9
1H
0K
#341
0H
#342
1-
b00000000000000000000000000000001 .
01
b000 D
1H
#343
0H
#344
0-
b00000000000000000000000000000010 .
11
1H
#345
0H
#346
1-
b00000000000000000000000000000011 .
01
b001 D
1H
#347
0H
#348
0-
b00000000000000000000000000000100 .
11
1H
#349
0H
#350
1-
b00000000000000000000000000000101 .
01
b010 D
1H
#351
0H
#352
0-
b00000000000000000000000000000110 .
11
1H
#353
0H
#354
1-
b00000000000000000000000000000111 .
01
b011 D
1H
1K
#355
0H
#356
0,
0-
b00000000000000000000000000000000 .
10
11
1H
0K
#357
0H
#358
1-
b00000000000000000000000000000001 .
01
b100 D
1H
#359
0H
#360
0-
b00000000000000000000000000000010 .
11
1H
#361
0H
#362
1-
b00000000000000000000000000000011 .
01
1<
b101 D
1H
b10 M
#363
0H
#364
0-
b00000000000000000000000000000100 .
11
1H
#365
0H
#366
1-
b00000000000000000000000000000101 .
01
0<
1@
1A
b10 B
b110 D
1H
b01 M
#367
0H
#368
0-
b00000000000000000000000000000110 .
11
1H
#369
0H
#370
1-
b00000000000000000000000000000111 .
01
0@
0A
b01 B
b1001 C
b111 D
b1100010000 F
b1000100000 G
1H
1K
#371
0H
#372
1,
0-
b00000000000000000000000000000000 .
00
11
12
b0000000000 8
b0000 9
1H
0K
b00 N
#373
0H
#374
1-
b00000000000000000000000000000001 .
01
1:
b000 D
1H
#375
0H
#376
0-
b00000000000000000000000000000010 .
11
1H
#377
0H
#378
1-
b00000000000000000000000000000011 .
01
b001 D
1H
#379
0H
#380
0-
b00000000000000000000000000000100 .
11
1H
#381
0H
#382
1-
b00000000000000000000000000000101 .
01
b010 D
1H
#383
0H
#384
0-
b00000000000000000000000000000110 .
11
1H
#385
0H
#386
1-
b00000000000000000000000000000111 .
01
b011 D
1H
1K
#387
0H
#388
0,
0-
b00000000000000000000000000000000 .
10
11
1H
0K
#389
0H
#390
1-
b00000000000000000000000000000001 .
01
b100 D
1H
#391
0H
#392
0-
b00000000000000000000000000000010 .
11
1H
#393
0H
#394
1-
b00000000000000000000000000000011 .
01
1<
b101 D
1H
b10 M
#395
0H
#396
0-
b00000000000000000000000000000100 .
11
1H
#397
0H
#398
1-
b00000000000000000000000000000101 .
01
0<
1@
1A
b10 B
b110 D
1H
b11 M
#399
0H
#400
0-
b00000000000000000000000000000110 .
11
1H
#401
0H
#402
1-
b00000000000000000000000000000111 .
01
1>
1?
0@
0A
b11 B
b111 D
b1110001000 F
b1100010000 G
1H
1K
#403
0H
#404
1,
0-
b00000000000000000000000000000000 .
00
11
02
03
05
b00 6
07
b0001 9
1H
0K
#405
0H
#406
1-
b00000000000000000000000000000001 .
01
b11000100 ;
1=
b0000 C
b000 D
1H
b00 M
#407
0H
#408
0-
b00000000000000000000000000000010 .
11
1H
#409
0H
#410
1-
b00000000000000000000000000000011 .
01
0?
b00 B
b001 D
1H
#411
0H
#412
0-
b00000000000000000000000000000100 .
11
1H
#413
0H
#414
b10011100 &
1-
b00000000000000000000000000000101 .
01
0=
b010 D
1H
#415
0H
#416
1%
0-
b00000000000000000000000000000110 .
11
1H
b01 N
#417
0H
#418
1-
b00000000000000000000000000000111 .
01
b011 D
1H
1K
#419
0H
#420
0,
0-
b00000000000000000000000000000000 .
10
11
1H
0K
#421
0H
#422
1-
b00000000000000000000000000000001 .
01
b100 D
1H
#423
0H
#424
0-
b00000000000000000000000000000010 .
11
1H
#425
0H
#426
1-
b00000000000000000000000000000011 .
01
1<
b101 D
1H
#427
0H
#428
0-
b00000000000000000000000000000100 .
11
1H
#429
0H
#430
1-
b00000000000000000000000000000101 .
01
0<
b110 D
1H
#431
0H
#432
0-
b00000000000000000000000000000110 .
11
1H
#433
0H
#434
1-
b00000000000000000000000000000111 .
01
b111 D
1H
1K
#435
0H
#436
1,
0-
b00000000000000000000000000000000 .
00
11
14
b01 6
17
1H
0K
b10 N
#437
0H
#438
1-
b00000000000000000000000000000001 .
01
b000 D
1H
#439
0H
#440
0-
b00000000000000000000000000000010 .
11
1H
#441
0H
#442
1-
b00000000000000000000000000000011 .
01
b001 D
1H
#443
0H
#444
0$
0%
0-
b00000000000000000000000000000100 .
11
1H
b01 N
#445
0H
#446
1$
b10011100 )
1-
b00000000000000000000000000000101 .
01
b010 D
1H
b10 N
#447
0H
#448
0-
b00000000000000000000000000000110 .
11
1H
#449
0H
#450
1-
b00000000000000000000000000000111 .
01
b011 D
1H
1K
#451
0H
#452
0,
0-
b00000000000000000000000000000000 .
10
11
1H
0K
#453
0H
#454
1-
b00000000000000000000000000000001 .
01
b100 D
1H
#455
0H
#456
0-
b00000000000000000000000000000010 .
11
1H
#457
0H
#458
1-
b00000000000000000000000000000011 .
01
1<
b101 D
1H
#459
0H
#460
0-
b00000000000000000000000000000100 .
11
1H
#461
0H
#462
1-
b00000000000000000000000000000101 .
01
0<
b110 D
1H
#463
0H
#464
0-
b00000000000000000000000000000110 .
11
1H
#465
0H
#466
1-
b00000000000000000000000000000111 .
01
b111 D
1H
1K
#467
0H
#468
1,
0-
b00000000000000000000000000000000 .
00
11
13
04
15
b10 6
b1100111000 8
1H
0K
#469
0H
#470
1-
b00000000000000000000000000000001 .
01
b000 D
1H
#471
0H
#472
0-
b00000000000000000000000000000010 .
11
1H
#473
0H
#474
1-
b00000000000000000000000000000011 .
01
b001 D
1H
#475
0H
#476
0-
b00000000000000000000000000000100 .
11
1H
#477
0H
#478
1-
b00000000000000000000000000000101 .
01
b010 D
1H
#479
0H
#480
0-
b00000000000000000000000000000110 .
11
1H
#481
0H
#482
1-
b00000000000000000000000000000111 .
01
b011 D
1H
1K
#483
0H
#484
0,
0-
b00000000000000000000000000000000 .
10
11
1H
0K
#485
0H
#486
1-
b00000000000000000000000000000001 .
01
b100 D
1H
#487
0H
#488
0-
b00000000000000000000000000000010 .
11
1H
#489
0H
#490
1-
b00000000000000000000000000000011 .
01
1<
b101 D
1H
#491
0H
#492
0-
b00000000000000000000000000000100 .
11
1H
#493
0H
#494
1-
b00000000000000000000000000000101 .
01
0<
b110 D
1H
#495
0H
#496
0-
b00000000000000000000000000000110 .
11
1H
#497
0H
#498
1-
b00000000000000000000000000000111 .
01
b111 D
1H
1K
#499
0H
#500
1,
0-
b00000000000000000000000000000000 .
00
11
07
b0110011100 8
b0010 9
1H
0I
1J
0K
b01 M
#501
0H
#502
1-
b00000000000000000000000000000001 .
01
0>
b01 B
b000 D
1H
#503
0H
#504
0-
b00000000000000000000000000000010 .
11
1H
#505
0H
#506
1-
b00000000000000000000000000000011 .
01
0:
b001 D
1H
#507
0H
#508
0-
b00000000000000000000000000000100 .
11
1H
#509
0H
#510
1-
b00000000000000000000000000000101 .
01
b010 D
1H
#511
0H
#512
0-
b00000000000000000000000000000110 .
11
1H
#513
0H
#514
1-
b00000000000000000000000000000111 .
01
b011 D
1H
1K
#515
0H
#516
0,
0-
b00000000000000000000000000000000 .
10
11
1H
0K
#517
0H
#518
1-
b00000000000000000000000000000001 .
01
b100 D
1H
#519
0H
#520
0-
b00000000000000000000000000000010 .
11
1H
#521
0H
#522
1-
b00000000000000000000000000000011 .
01
1<
b101 D
1H
b10 M
#523
0H
#524
0-
b00000000000000000000000000000100 .
11
1H
#525
0H
#526
1-
b00000000000000000000000000000101 .
01
0<
1@
1A
b10 B
b110 D
1H
b01 M
#527
0H
#528
0-
b00000000000000000000000000000110 .
11
1H
#529
0H
#530
1-
b00000000000000000000000000000111 .
01
0@
0A
b01 B
b0001 C
b111 D
b0111000100 F
b1110001000 G
1H
1K
#531
0H
#532
1,
0-
b00000000000000000000000000000000 .
00
11
b0011001110 8
b0011 9
1H
0K
#533
0H
#534
1-
b00000000000000000000000000000001 .
01
b000 D
1H
#535
0H
#536
0-
b00000000000000000000000000000010 .
11
1H
#537
0H
#538
1-
b00000000000000000000000000000011 .
01
b001 D
1H
#539
0H
#540
0-
b00000000000000000000000000000100 .
11
1H
#541
0H
#542
1-
b00000000000000000000000000000101 .
01
b010 D
1H
#543
0H
#544
0-
b00000000000000000000000000000110 .
11
1H
#545
0H
#546
1-
b00000000000000000000000000000111 .
01
b011 D
1H
1K
#547
0H
#548
0,
0-
b00000000000000000000000000000000 .
10
11
1H
0K
#549
0H
#550
1-
b00000000000000000000000000000001 .
01
b100 D
1H
#551
0H
#552
0-
b00000000000000000000000000000010 .
11
1H
#553
0H
#554
1-
b00000000000000000000000000000011 .
01
1<
b101 D
1H
b10 M
#555
0H
#556
0-
b00000000000000000000000000000100 .
11
1H
#557
0H
#558
1-
b00000000000000000000000000000101 .
01
0<
1@
1A
b10 B
b110 D
1H
b01 M
#559
0H
#560
0-
b00000000000000000000000000000110 .
11
1H
#561
0H
#562
1-
b00000000000000000000000000000111 .
01
0@
0A
b01 B
b0010 C
b111 D
b0011100010 F
b0111000100 G
1H
1K
#563
0H
#564
1,
0-
b00000000000000000000000000000000 .
00
11
b0001100111 8
b0100 9
1H
0K
#565
0H
#566
1-
b00000000000000000000000000000001 .
01
b000 D
1H
#567
0H
#568
0-
b00000000000000000000000000000010 .
11
1H
#569
0H
#570
1-
b00000000000000000000000000000011 .
01
b001 D
1H
#571
0H
#572
0-
b00000000000000000000000000000100 .
11
1H
#573
0H
#574
1-
b00000000000000000000000000000101 .
01
b010 D
1H
#575
0H
#576
0-
b00000000000000000000000000000110 .
11
1H
#577
0H
#578
1-
b00000000000000000000000000000111 .
01
b011 D
1H
1K
#579
0H
#580
0,
0-
b00000000000000000000000000000000 .
10
11
1H
0K
#581
0H
#582
1-
b00000000000000000000000000000001 .
01
b100 D
1H
#583
0H
#584
0-
b00000000000000000000000000000010 .
11
1H
#585
0H
#586
1-
b00000000000000000000000000000011 .
01
1<
b101 D
1H
b10 M
#587
0H
#588
0-
b00000000000000000000000000000100 .
11
1H
#589
0H
#590
1-
b00000000000000000000000000000101 .
01
0<
1@
1A
b10 B
b110 D
1H
b01 M
#591
0H
#592
0-
b00000000000000000000000000000110 .
11
1H
#593
0H
